…
<img src="man/figures/README-example-consort-1.png" alt="CONSORT diagram: 1,200 patients assessed for eligibility, 262 excluded (declined, prior chemotherapy, or bone metastasis), 938 randomized and allocated 469 each to arms A and B" width="100%" />

Prefer to place things by hand? `consort_box_add()` and
`consort_arrow_add()` also accept explicit coordinates — see
`?consort_box_add`.

At this point, we are ready for analysis. The following retrieves the
desired data frame of randomized subjects:

``` r
study_cohorts %>%
  cohort_pull(randomized)
#> # A tibble: 938 × 5
#>       id declined prior_chemo bone_mets treatment
#>    <int>    <int>       <int>     <int> <chr>    
#>  1 65464        0           0         0 Drug A   
#>  2 48228        0           0         0 Drug B   
#>  3 92586        0           0         0 Drug A   
#>  4 70176        0           0         0 Drug B   
#>  5 89052        0           0         0 Drug A   
#>  6 97333        0           0         0 Drug B   
#>  7 80724        0           0         0 Drug A   
#>  8 65186        0           0         0 Drug B   
#>  9 48837        0           0         0 Drug A   
#> 10 99005        0           0         0 Drug B   
#> # ℹ 928 more rows
```
