Extract a cohort data frame — cohort_pull • ggconsort
…
    Value

    A tibble for a single cohort

    Examples

cohorts <- trial_data |>
  cohort_start("Assessed for eligibility") |>
    cohort_define(
      consented = .full |> dplyr::filter(declined != 1),
      consented_chemonaive = consented |> dplyr::filter(prior_chemo != 1)
    )

cohorts |> cohort_pull(consented_chemonaive)
#> # A tibble: 1,028 × 8
#>       id declined prior_chemo bone_mets treatment lost_to_followup discontinued
#>    <int>    <int>       <int>     <int> <chr>                <int>        <int>
#>  1 65464        0           0         0 Drug A                   0            0
#>  2 48228        0           0         0 Drug B                   0            0
#>  3 92586        0           0         0 Drug A                   0            0
#>  4 70176        0           0         0 Drug B                   0            0
#>  5 89052        0           0         0 Drug A                   0            0
#>  6 97333        0           0         0 Drug B                   0            0
#>  7 80724        0           0         0 Drug A                   0            0
#>  8 65186        0           0         0 Drug B                   0            0
#>  9 48837        0           0         0 Drug A                   0            0
#> 10 99005        0           0         0 Drug B                   0            0
#> # ℹ 1,018 more rows
#> # ℹ 1 more variable: not_analyzed <int>
…
