A complete CONSORT diagram • ggconsort
…
At analysis time, the analysis populations are one
cohort_pull() away:

study_cohorts |>
  cohort_pull(arm_a_analyzed)
#> # A tibble: 457 × 8
#>       id declined prior_chemo bone_mets treatment lost_to_followup discontinued
#>    <int>    <int>       <int>     <int> <chr>                <int>        <int>
#>  1 65464        0           0         0 Drug A                   0            0
#>  2 92586        0           0         0 Drug A                   0            0
#>  3 89052        0           0         0 Drug A                   0            0
#>  4 80724        0           0         0 Drug A                   0            0
#>  5 48837        0           0         0 Drug A                   0            0
#>  6 57285        0           0         0 Drug A                   0            0
#>  7 65239        0           0         0 Drug A                   0            1
#>  8 84443        0           0         0 Drug A                   0            0
#>  9 27997        0           0         0 Drug A                   0            0
#> 10 58752        0           0         0 Drug A                   0            0
#> # ℹ 447 more rows
#> # ℹ 1 more variable: not_analyzed <int>
…
