…
![PRISMA 2020 flow diagram: 500 records identified from databases and
registers, 398 screened after removing 102 duplicates, 147 reports
sought, 138 assessed for eligibility, and 31 studies included in the
review](prisma_files/figure-html/prisma-plot-1.png)

At analysis time, the included studies are one
[`cohort_pull()`](https://tgerke.github.io/ggconsort/reference/cohort_pull.md)
away:

``` r

review_cohorts %>%
  cohort_pull(included)
#> # A tibble: 31 × 6
#>       id source    duplicate passed_screen retrieved exclusion_reason
#>    <int> <chr>     <lgl>     <lgl>         <lgl>     <chr>           
#>  1   470 Registers FALSE     TRUE          TRUE      NA              
#>  2   471 Registers FALSE     TRUE          TRUE      NA              
#>  3   472 Registers FALSE     TRUE          TRUE      NA              
#>  4   473 Registers FALSE     TRUE          TRUE      NA              
#>  5   474 Registers FALSE     TRUE          TRUE      NA              
#>  6   475 Registers FALSE     TRUE          TRUE      NA              
#>  7   476 Registers FALSE     TRUE          TRUE      NA              
#>  8   477 Registers FALSE     TRUE          TRUE      NA              
#>  9   478 Registers FALSE     TRUE          TRUE      NA              
#> 10   479 Registers FALSE     TRUE          TRUE      NA              
#> # ℹ 21 more rows
```
