PRISMA flow diagrams with ggconsort • ggconsort
…
At analysis time, the included studies are one
cohort_pull() away:

review_cohorts %>%
  cohort_pull(included)
#> # A tibble: 31 × 6
#>       id source    duplicate passed_screen retrieved exclusion_reason
#>    <int> <chr>     <lgl>     <lgl>         <lgl>     <chr>           
#>  1   470 Registers FALSE     TRUE          TRUE      NA              
#>  2   471 Registers FALSE     TRUE          TRUE      NA              
#>  3   472 Registers FALSE     TRUE          TRUE      NA              
#>  4   473 Registers FALSE     TRUE          TRUE      NA              
#>  5   474 Registers FALSE     TRUE          TRUE      NA              
#>  6   475 Registers FALSE     TRUE          TRUE      NA              
#>  7   476 Registers FALSE     TRUE          TRUE      NA              
#>  8   477 Registers FALSE     TRUE          TRUE      NA              
#>  9   478 Registers FALSE     TRUE          TRUE      NA              
#> 10   479 Registers FALSE     TRUE          TRUE      NA              
#> # ℹ 21 more rows
…
